<svg id="Utility_Icons_preview" data-name="Utility Icons / preview" xmlns="http://www.w3.org/2000/svg" xmlns:xlink="http://www.w3.org/1999/xlink" width="22" height="22" viewBox="0 0 22 22">
  <defs>
    <clipPath id="clip-path">
      <path id="_Icon_Color" data-name="🎨 Icon Color" d="M9.787,12.786A10.736,10.736,0,0,1,4.005,11.1,10.93,10.93,0,0,1,.084,6.732a.723.723,0,0,1,0-.677A10.931,10.931,0,0,1,4.005,1.688a10.749,10.749,0,0,1,11.564,0,10.923,10.923,0,0,1,3.92,4.367.719.719,0,0,1,0,.677,10.922,10.922,0,0,1-3.92,4.367A10.737,10.737,0,0,1,9.787,12.786Zm0-10.53a4.125,4.125,0,1,0,2.929,1.209A4.109,4.109,0,0,0,9.787,2.256Zm0,6.769a2.616,2.616,0,1,1,1.866-.766A2.618,2.618,0,0,1,9.787,9.026Z" transform="translate(0 0)" fill="#706e6b"/>
    </clipPath>
  </defs>
  <g id="Group_1" data-name="Group 1" transform="translate(1.213 4.607)">
    <path id="_Icon_Color-2" data-name="🎨 Icon Color" d="M9.787,12.786A10.736,10.736,0,0,1,4.005,11.1,10.93,10.93,0,0,1,.084,6.732a.723.723,0,0,1,0-.677A10.931,10.931,0,0,1,4.005,1.688a10.749,10.749,0,0,1,11.564,0,10.923,10.923,0,0,1,3.92,4.367.719.719,0,0,1,0,.677,10.922,10.922,0,0,1-3.92,4.367A10.737,10.737,0,0,1,9.787,12.786Zm0-10.53a4.125,4.125,0,1,0,2.929,1.209A4.109,4.109,0,0,0,9.787,2.256Zm0,6.769a2.616,2.616,0,1,1,1.866-.766A2.618,2.618,0,0,1,9.787,9.026Z" transform="translate(0 0)" fill="#ffb75d"/>
  </g>
</svg>
